"country_name_en","falcon_entity_function_output2"
"Afghanistan","<http://www.wikidata.org/entity/Q889>"
"Angola","<http://www.wikidata.org/entity/Q916>"
"Albania","<http://www.wikidata.org/entity/Q222>"
"United Arab Emirates","<http://www.wikidata.org/entity/Q878>"
"Argentina","<http://www.wikidata.org/entity/Q645291>"
"Armenia","<http://www.wikidata.org/entity/Q399>"
"Antigua and Barbuda","<http://www.wikidata.org/entity/Q781>"
"Australia","<http://www.wikidata.org/entity/Q781244>"
"Austria","<http://www.wikidata.org/entity/Q2325193>"
"Azerbaijan","<http://www.wikidata.org/entity/Q227>"
"Burundi","<http://www.wikidata.org/entity/Q967>"
"Belgium","<http://www.wikidata.org/entity/Q2025327>"
"Benin","<http://www.wikidata.org/entity/Q962>"
"Burkina Faso","<http://www.wikidata.org/entity/Q965>"
"Bangladesh","<http://www.wikidata.org/entity/Q902>"
"Bulgaria","<http://www.wikidata.org/entity/Q219>"
"Bahrain","<http://www.wikidata.org/entity/Q398>"
"Bahamas","<http://www.wikidata.org/entity/Q778>"
"Bosnia and Herzegovina","<http://www.wikidata.org/entity/Q225>"
"Belarus","<http://www.wikidata.org/entity/Q184>"
"Belize","<http://www.wikidata.org/entity/Q242>"
"Plurinational State of Bolivia","<http://www.wikidata.org/entity/Q750>"
"Brazil","<http://www.wikidata.org/entity/Q1998364>"
"Barbados","<http://www.wikidata.org/entity/Q244>"
"Brunei Darussalam","<http://www.wikidata.org/entity/Q921>"
"Bhutan","<http://www.wikidata.org/entity/Q917>"
"Botswana","<http://www.wikidata.org/entity/Q963>"
"Central African Republic","<http://www.wikidata.org/entity/Q929>"
"Canada","<http://www.wikidata.org/entity/Q18982533>"
"Switzerland","<http://www.wikidata.org/entity/Q80282>"
"Chile","<http://www.wikidata.org/entity/Q18418541>"
"China","<http://www.wikidata.org/entity/Q136211>"
"Cote d'Ivoire","<http://www.wikidata.org/entity/Q1008>"
"Cameroon","<http://www.wikidata.org/entity/Q1009>"
"Democratic Republic of the Congo","<http://www.wikidata.org/entity/Q974>"
"Republic of Congo","<http://www.wikidata.org/entity/Q971>"
"Colombia","<http://www.wikidata.org/entity/Q765457>"
"Comoros","<http://www.wikidata.org/entity/Q970>"
"Cape Verde","<http://www.wikidata.org/entity/Q1011>"
"Costa Rica","<http://www.wikidata.org/entity/Q800>"
"Cuba","<http://www.wikidata.org/entity/Q241>"
"Cyprus","<http://www.wikidata.org/entity/Q229>"
"Czech Republic","<http://www.wikidata.org/entity/Q213>"
"Germany","<http://www.wikidata.org/entity/Q3839160>"
"Djibouti","<http://www.wikidata.org/entity/Q977>"
"Dominica","<http://www.wikidata.org/entity/Q784>"
"Denmark","<http://www.wikidata.org/entity/Q5257927>"
"Dominican Republic","<http://www.wikidata.org/entity/Q786>"
"Algeria","<http://www.wikidata.org/entity/Q262>"
"Ecuador","<http://www.wikidata.org/entity/Q736>"
"Egypt","<http://www.wikidata.org/entity/Q202311>"
"Eritrea","<http://www.wikidata.org/entity/Q986>"
"Spain","<http://www.wikidata.org/entity/Q2905661>"
"Estonia","<http://www.wikidata.org/entity/Q191>"
"Ethiopia","<http://www.wikidata.org/entity/Q115>"
"Finland","<http://www.wikidata.org/entity/Q33>"
"Fiji","<http://www.wikidata.org/entity/Q712>"
"France","<http://www.wikidata.org/entity/Q3080566>"
"Federated States of Micronesia","<http://www.wikidata.org/entity/Q702>"
"Gabon","<http://www.wikidata.org/entity/Q1000>"
"United Kingdom of Great Britain and Northern Ireland","<http://www.wikidata.org/entity/Q145>"
"Georgia","<http://www.wikidata.org/entity/Q1428>"
"Ghana","<http://www.wikidata.org/entity/Q117>"
"Guinea","<http://www.wikidata.org/entity/Q1006>"
"Gambia","<http://www.wikidata.org/entity/Q1005>"
"Guinea-Bissau","<http://www.wikidata.org/entity/Q1007>"
"Equatorial Guinea","<http://www.wikidata.org/entity/Q983>"
"Greece","<http://www.wikidata.org/entity/Q41>"
"Grenada","<http://www.wikidata.org/entity/Q769>"
"Guatemala","<http://www.wikidata.org/entity/Q774>"
"Guyana","<http://www.wikidata.org/entity/Q734>"
"Honduras","<http://www.wikidata.org/entity/Q783>"
"Croatia","<http://www.wikidata.org/entity/Q224>"
"Haiti","<http://www.wikidata.org/entity/Q790>"
"Hungary","<http://www.wikidata.org/entity/Q28>"
"Indonesia","<http://www.wikidata.org/entity/Q15758099>"
"India","<http://www.wikidata.org/entity/Q39457540>"
"Ireland","<http://www.wikidata.org/entity/Q11713708>"
"Islamic Republic of Iran","<http://www.wikidata.org/entity/Q794>"
"Iraq","<http://www.wikidata.org/entity/Q796>"
"Iceland","<http://www.wikidata.org/entity/Q189>"
"Israel","<http://www.wikidata.org/entity/Q2366978>"
"Italy","<http://www.wikidata.org/entity/Q38>"
"Jamaica","<http://www.wikidata.org/entity/Q766>"
"Jordan","<http://www.wikidata.org/entity/Q810>"
"Japan","<http://www.wikidata.org/entity/Q205662>"
"Kazakhstan","<http://www.wikidata.org/entity/Q232>"
"Kenya","<http://www.wikidata.org/entity/Q114>"
"Kyrgyzstan","<http://www.wikidata.org/entity/Q813>"
"Cambodia","<http://www.wikidata.org/entity/Q424>"
"Kiribati","<http://www.wikidata.org/entity/Q710>"
"Republic of Korea","<http://www.wikidata.org/entity/Q884>"
"Kuwait","<http://www.wikidata.org/entity/Q817>"
"Lao People's Democratic Republic","<http://www.wikidata.org/entity/Q262>"
"Lebanon","<http://www.wikidata.org/entity/Q954894>"
"Liberia","<http://www.wikidata.org/entity/Q1014>"
"Libyan Arab Jamahiriya","<http://www.wikidata.org/entity/Q775136>"
"Saint Lucia","<http://www.wikidata.org/entity/Q760>"
"Sri Lanka","<http://www.wikidata.org/entity/Q854>"
"Lesotho","<http://www.wikidata.org/entity/Q1013>"
"Lithuania","<http://www.wikidata.org/entity/Q37>"
"Luxembourg","<http://www.wikidata.org/entity/Q1126>"
"Latvia","<http://www.wikidata.org/entity/Q211>"
"Morocco","<http://www.wikidata.org/entity/Q1028>"
"Republic of Moldova","<http://www.wikidata.org/entity/Q217>"
"Madagascar","<http://www.wikidata.org/entity/Q1019>"
"Maldives","<http://www.wikidata.org/entity/Q826>"
"Mexico","<http://www.wikidata.org/entity/Q1182352>"
"North Macedonia","<http://www.wikidata.org/entity/Q221>"
"Mali","<http://www.wikidata.org/entity/Q2012255>"
"Malta","<http://www.wikidata.org/entity/Q963370>"
"Myanmar","<http://www.wikidata.org/entity/Q836>"
"Montenegro","<http://www.wikidata.org/entity/Q236>"
"Mongolia","<http://www.wikidata.org/entity/Q711>"
"Mozambique","<http://www.wikidata.org/entity/Q1029>"
"Mauritania","<http://www.wikidata.org/entity/Q1025>"
"Mauritius","<http://www.wikidata.org/entity/Q1027>"
"Malawi","<http://www.wikidata.org/entity/Q1020>"
"Malaysia","<http://www.wikidata.org/entity/Q833>"
"Namibia","<http://www.wikidata.org/entity/Q1030>"
"Niger","<http://www.wikidata.org/entity/Q380452>"
"Nigeria","<http://www.wikidata.org/entity/Q1033>"
"Nicaragua","<http://www.wikidata.org/entity/Q811>"
"Netherlands","<http://www.wikidata.org/entity/Q55>"
"Norway","<http://www.wikidata.org/entity/Q20>"
"Nepal","<http://www.wikidata.org/entity/Q837>"
"New Zealand","<http://www.wikidata.org/entity/Q664>"
"Oman","<http://www.wikidata.org/entity/Q842>"
"Pakistan","<http://www.wikidata.org/entity/Q843>"
"Panama","<http://www.wikidata.org/entity/Q804>"
"Peru","<http://www.wikidata.org/entity/Q386657>"
"Philippines","<http://www.wikidata.org/entity/Q928>"
"Papua New Guinea","<http://www.wikidata.org/entity/Q691>"
"Poland","<http://www.wikidata.org/entity/Q6902205>"
"Portugal","<http://www.wikidata.org/entity/Q7232531>"
"Paraguay","<http://www.wikidata.org/entity/Q733>"
"Qatar","<http://www.wikidata.org/entity/Q846>"
"Romania","<http://www.wikidata.org/entity/Q218>"
"Russian Federation","<http://www.wikidata.org/entity/Q159>"
"Rwanda","<http://www.wikidata.org/entity/Q1037>"
"Saudi Arabia","<http://www.wikidata.org/entity/Q851>"
"Sudan","<http://www.wikidata.org/entity/Q209703>"
"Senegal","<http://www.wikidata.org/entity/Q1041>"
"Singapore","<http://www.wikidata.org/entity/Q334>"
"Solomon Islands","<http://www.wikidata.org/entity/Q685>"
"Sierra Leone","<http://www.wikidata.org/entity/Q1044>"
"El Salvador","<http://www.wikidata.org/entity/Q792>"
"Serbia","<http://www.wikidata.org/entity/Q403>"
"Saint Thomas and Prince","<http://www.wikidata.org/entity/Q9438>"
"Suriname","<http://www.wikidata.org/entity/Q730>"
"Slovakia","<http://www.wikidata.org/entity/Q214>"
"Slovenia","<http://www.wikidata.org/entity/Q215>"
"Sweden","<http://www.wikidata.org/entity/Q3450805>"
"Eswatini","<http://www.wikidata.org/entity/Q1050>"
"Seychelles","<http://www.wikidata.org/entity/Q1042>"
"Syrian Arab Republic","<http://www.wikidata.org/entity/Q858>"
"Chad","<http://www.wikidata.org/entity/Q657>"
"Togo","<http://www.wikidata.org/entity/Q945>"
"Thailand","<http://www.wikidata.org/entity/Q869>"
"Tajikistan","<http://www.wikidata.org/entity/Q863>"
"Turkmenistan","<http://www.wikidata.org/entity/Q874>"
"Timor-Leste","<http://www.wikidata.org/entity/Q574>"
"Tonga","<http://www.wikidata.org/entity/Q34101>"
"Trinidad and Tobago","<http://www.wikidata.org/entity/Q754>"
"Tunisia","<http://www.wikidata.org/entity/Q948>"
"Turkey","<http://www.wikidata.org/entity/Q43>"
"United Republic of Tanzania","<http://www.wikidata.org/entity/Q924>"
"Uganda","<http://www.wikidata.org/entity/Q38487535>"
"Ukraine","<http://www.wikidata.org/entity/Q212>"
"Uruguay","<http://www.wikidata.org/entity/Q77>"
"United States of America","<http://www.wikidata.org/entity/Q30>"
"Uzbekistan","<http://www.wikidata.org/entity/Q265>"
"Saint Vincent and the Grenadines","<http://www.wikidata.org/entity/Q757>"
"Bolivarian Republic of Venezuela","<http://www.wikidata.org/entity/Q717>"
"Viet Nam","<http://www.wikidata.org/entity/Q881>"
"Vanuatu","<http://www.wikidata.org/entity/Q686>"
"Samoa","<http://www.wikidata.org/entity/Q683>"
"Yemen","<http://www.wikidata.org/entity/Q805>"
"South Africa","<http://www.wikidata.org/entity/Q39543071>"
"Zambia","<http://www.wikidata.org/entity/Q953>"
"Zimbabwe","<http://www.wikidata.org/entity/Q954>"
